Simulation study
…
[1] 100

TMax <- params$TMax # ts length
TMax

[1] 150

Simulate fGN time series

# Enable parallel-processing
plan(multisession, workers = 7)
fGNs <- simulate_many_fGN(TMax, Hs, n_seeds)
print(fGNs, n = 2)

# A tibble: 1,200 × 3
  simu_id     H ts_original
    <int> <dbl> <list>     
1       1   0.3 <dbl [150]>
2       2   0.3 <dbl [150]>
# … with 1,198 more rows
# ℹ Use `print(n = ...)` to see more rows
Compute the periodograms and variances

vars_and_periodograms <- fGNs %>% 
  mutate(
    variance = future_map(ts_original, estimate_variances),
    periodogram = future_map(ts_original, estimate_periodogram)
  )
# Save as intermediate result
write_rds(
  vars_and_periodograms, 
  glue::glue('computed_data/vars_and_periodograms_{TMax}.rds')
)
print(vars_and_periodograms, n = 2)

# A tibble: 1,200 × 5
  simu_id     H ts_original variance   periodogram
    <int> <dbl> <list>      <list>     <list>     
1       1   0.3 <dbl [150]> <dbl [75]> <dbl [150]>
2       2   0.3 <dbl [150]> <dbl [75]> <dbl [150]>
# … with 1,198 more rows
# ℹ Use `print(n = ...)` to see more rows
…
