Simulation study
…
[1] 1000

TMax <- params$TMax # ts length
TMax

[1] 50

Simulate fGN time series

# Enable parallel-processing
plan(multisession, workers = 7)
fGNs <- simulate_many_fGN(TMax, Hs, n_seeds)
print(fGNs, n = 2)

# A tibble: 12,000 × 3
  simu_id     H ts_original
    <int> <dbl> <list>     
1       1   0.3 <dbl [50]> 
2       2   0.3 <dbl [50]> 
# … with 11,998 more rows
Compute the periodograms and variances

vars_and_periodograms <- fGNs %>% 
  mutate(
    variance = future_map(ts_original, estimate_variances),
    periodogram = future_map(ts_original, estimate_periodogram)
  )
# Save as intermediate result
write_rds(
  vars_and_periodograms, 
  glue::glue('computed_data/vars_and_periodograms_{TMax}.rds')
)
print(vars_and_periodograms, n = 2)

# A tibble: 12,000 × 5
  simu_id     H ts_original variance   periodogram
    <int> <dbl> <list>      <list>     <list>     
1       1   0.3 <dbl [50]>  <dbl [25]> <dbl [50]> 
2       2   0.3 <dbl [50]>  <dbl [25]> <dbl [50]> 
# … with 11,998 more rows
…
